[
  {
    "service.pid":"org.amdatu.remote.discovery.zookeeper",
    "org.amdatu.remote.discovery.zookeeper.connectstring": "localhost:6789",
    "org.amdatu.remote.discovery.zookeeper.host": "localhost",
    "org.amdatu.remote.discovery.zookeeper.rootpath": "/rsa",
    "org.amdatu.remote.discovery.zookeeper.path": "org.amdatu.remote.discovery.zookeeper",
    "org.amdatu.remote.discovery.zookeeper.schedule": 10
  }
]
